module subscription-service

go 1.19

require (
	github.com/alexedwards/scs v1.4.1
	github.com/alexedwards/scs/redisstore v0.0.0-20220528130143-d93ace5be94b
	github.com/alexedwards/scs/v2 v2.5.0
	github.com/go-chi/chi/v5 v5.0.7
	github.com/gomodule/redigo v1.8.0
	github.com/jackc/pgconn v1.13.0
	github.com/jackc/pgx/v4 v4.17.2
)

require (
	github.com/PuerkitoBio/goquery v1.5.1 // indirect
	github.com/andybalholm/cascadia v1.1.0 // indirect
	github.com/bwmarrin/go-alone v0.0.0-20190806015146-742bb55d1631 // indirect
	github.com/gorilla/css v1.0.0 // indirect
	github.com/jackc/chunkreader/v2 v2.0.1 // indirect
	github.com/jackc/pgio v1.0.0 // indirect
	github.com/jackc/pgpassfile v1.0.0 // indirect
	github.com/jackc/pgproto3/v2 v2.3.1 // indirect
	github.com/jackc/pgservicefile v0.0.0-20200714003250-2b9c44734f2b // indirect
	github.com/jackc/pgtype v1.12.0 // indirect
	github.com/toorop/go-dkim v0.0.0-20201103131630-e1cd1a0a5208 // indirect
	github.com/vanng822/css v1.0.1 // indirect
	github.com/vanng822/go-premailer v1.20.1 // indirect
	github.com/xhit/go-simple-mail/v2 v2.12.0 // indirect
	golang.org/x/crypto v0.0.0-20220722155217-630584e8d5aa // indirect
	golang.org/x/net v0.0.0-20211112202133-69e39bad7dc2 // indirect
	golang.org/x/sys v0.0.0-20210615035016-665e8c7367d1 // indirect
	golang.org/x/text v0.3.7 // indirect
)
